<?xml version="1.0" encoding="UTF-8" standalone="no"?>
<!-- Created with Inkscape (http://www.inkscape.org/) -->

<svg
   xmlns:dc="http://purl.org/dc/elements/1.1/"
   xmlns:cc="http://creativecommons.org/ns#"
   xmlns:rdf="http://www.w3.org/1999/02/22-rdf-syntax-ns#"
   xmlns:svg="http://www.w3.org/2000/svg"
   xmlns="http://www.w3.org/2000/svg"
   xmlns:xlink="http://www.w3.org/1999/xlink"
   xmlns:sodipodi="http://sodipodi.sourceforge.net/DTD/sodipodi-0.dtd"
   xmlns:inkscape="http://www.inkscape.org/namespaces/inkscape"
   width="112.49013mm"
   height="138.54103mm"
   viewBox="0 0 398.58707 490.89341"
   id="svg2"
   version="1.1"
   inkscape:version="0.91 r13725"
   sodipodi:docname="santa.svg">
  <defs
     id="defs4">
    <linearGradient
       inkscape:collect="always"
       id="linearGradient4391">
      <stop
         style="stop-color:#000000;stop-opacity:1;"
         offset="0"
         id="stop4393" />
      <stop
         style="stop-color:#000000;stop-opacity:0;"
         offset="1"
         id="stop4395" />
    </linearGradient>
    <linearGradient
       inkscape:collect="always"
       id="linearGradient4371">
      <stop
         style="stop-color:#000000;stop-opacity:1;"
         offset="0"
         id="stop4373" />
      <stop
         style="stop-color:#000000;stop-opacity:0;"
         offset="1"
         id="stop4375" />
    </linearGradient>
    <linearGradient
       inkscape:collect="always"
       xlink:href="#linearGradient4371"
       id="linearGradient4377"
       x1="564.79974"
       y1="298.56851"
       x2="464.86182"
       y2="295.63882"
       gradientUnits="userSpaceOnUse" />
    <linearGradient
       inkscape:collect="always"
       xlink:href="#linearGradient4391"
       id="linearGradient4397"
       x1="265.22147"
       y1="298.65305"
       x2="371.13791"
       y2="298.65305"
       gradientUnits="userSpaceOnUse" />
    <linearGradient
       inkscape:collect="always"
       xlink:href="#linearGradient4391"
       id="linearGradient4399"
       x1="266.5871"
       y1="291.22888"
       x2="424.62958"
       y2="291.22888"
       gradientUnits="userSpaceOnUse" />
  </defs>
  <sodipodi:namedview
     id="base"
     pagecolor="#ffffff"
     bordercolor="#666666"
     borderopacity="1.0"
     inkscape:pageopacity="0.0"
     inkscape:pageshadow="2"
     inkscape:zoom="0.90509668"
     inkscape:cx="387.80257"
     inkscape:cy="281.85292"
     inkscape:document-units="px"
     inkscape:current-layer="layer1"
     showgrid="false"
     inkscape:window-width="1366"
     inkscape:window-height="715"
     inkscape:window-x="-8"
     inkscape:window-y="-8"
     inkscape:window-maximized="1"
     fit-margin-top="0"
     fit-margin-left="0"
     fit-margin-right="0"
     fit-margin-bottom="0" />
  <metadata
     id="metadata7">
    <rdf:RDF>
      <cc:Work
         rdf:about="">
        <dc:format>image/svg+xml</dc:format>
        <dc:type
           rdf:resource="http://purl.org/dc/dcmitype/StillImage" />
        <dc:title></dc:title>
      </cc:Work>
    </rdf:RDF>
  </metadata>
  <g
     inkscape:label="Layer 1"
     inkscape:groupmode="layer"
     id="layer1"
     transform="translate(-168.08313,-131.11899)">
    <path
       style="fill:#efefef;fill-opacity:1;fill-rule:evenodd;stroke:none;stroke-width:1px;stroke-linecap:butt;stroke-linejoin:miter;stroke-opacity:1"
       d="m 561.62461,385.4999 c -10.65487,51.17522 -26.79108,101.84689 -46.85087,149.26014 L 519.75,564.6122 c 18.8162,-56.63533 35.3243,-116.34402 41.87461,-179.1123 z"
       id="path4152"
       inkscape:connector-curvature="0"
       sodipodi:nodetypes="cccc" />
    <path
       style="opacity:1;fill:#ffffff;fill-opacity:1;fill-rule:nonzero;stroke:#000000;stroke-width:1;stroke-linecap:round;stroke-linejoin:miter;stroke-miterlimit:4;stroke-dasharray:none;stroke-opacity:1"
       id="path4500"
       sodipodi:type="arc"
       sodipodi:cx="227.28625"
       sodipodi:cy="375.06445"
       sodipodi:rx="58.203125"
       sodipodi:ry="58.59375"
       sodipodi:start="0"
       sodipodi:end="6.2817716"
       sodipodi:open="true"
       d="m 285.48938,375.06445 a 58.203125,58.59375 0 0 1 -58.18255,58.59375 58.203125,58.59375 0 0 1 -58.22369,-58.55233 58.203125,58.59375 0 0 1 58.1414,-58.63513 58.203125,58.59375 0 0 1 58.26478,58.51088" />
    <path
       d="m 285.48938,375.06445 a 58.203125,58.59375 0 0 1 -58.18255,58.59375 58.203125,58.59375 0 0 1 -58.22369,-58.55233 58.203125,58.59375 0 0 1 58.1414,-58.63513 58.203125,58.59375 0 0 1 58.26478,58.51088"
       sodipodi:open="true"
       sodipodi:end="6.2817716"
       sodipodi:start="0"
       sodipodi:ry="58.59375"
       sodipodi:rx="58.203125"
       sodipodi:cy="375.06445"
       sodipodi:cx="227.28625"
       sodipodi:type="arc"
       id="path4498"
       style="opacity:1;fill:none;fill-opacity:1;fill-rule:nonzero;stroke:#000000;stroke-width:1;stroke-linecap:round;stroke-linejoin:miter;stroke-miterlimit:4;stroke-dasharray:none;stroke-opacity:1" />
    <path
       style="fill:#efefef;fill-opacity:1;fill-rule:evenodd;stroke:none;stroke-width:1px;stroke-linecap:butt;stroke-linejoin:miter;stroke-opacity:1"
       d="m 204.39805,321.50105 c 34.09998,8.80267 68.69058,16.6942 72.64418,81.48301 8.32545,-10.58819 7.42054,-21.17637 8.01019,-31.76456 -2.28298,-11.69304 -4.10951,-23.38609 -13.53446,-35.07913 -9.72122,-6.60225 -17.14686,-14.35229 -32.31699,-18.23009 -14.32845,-4.80352 -23.89438,0.87048 -34.80292,3.59077 z"
       id="path4502"
       inkscape:connector-curvature="0"
       sodipodi:nodetypes="cccccc" />
    <g
       id="g4463">
      <g
         id="g4457">
        <g
           id="g4453">
          <path
             d="M 565.6701,352.83923 A 150,150 0 0 1 415.72312,502.83922 150,150 0 0 1 265.67014,352.94526 150,150 0 0 1 415.51106,202.83932 150,150 0 0 1 565.66996,352.62718"
             sodipodi:open="true"
             sodipodi:end="6.2817716"
             sodipodi:start="0"
             sodipodi:ry="150"
             sodipodi:rx="150"
             sodipodi:cy="352.83923"
             sodipodi:cx="415.6701"
             sodipodi:type="arc"
             id="path4138"
             style="opacity:1;fill:#ffe476;fill-opacity:1;fill-rule:nonzero;stroke:none;stroke-width:12.5;stroke-linecap:round;stroke-linejoin:miter;stroke-miterlimit:4;stroke-dasharray:none;stroke-opacity:0.16292138" />
          <path
             style="opacity:1;fill:none;fill-opacity:1;fill-rule:nonzero;stroke:#000000;stroke-width:2;stroke-linecap:round;stroke-linejoin:miter;stroke-miterlimit:4;stroke-dasharray:none;stroke-opacity:1"
             id="path4162"
             sodipodi:type="arc"
             sodipodi:cx="415.6701"
             sodipodi:cy="352.83923"
             sodipodi:rx="150"
             sodipodi:ry="150"
             sodipodi:start="0"
             sodipodi:end="6.2817716"
             sodipodi:open="true"
             d="M 565.6701,352.83923 A 150,150 0 0 1 415.72312,502.83922 150,150 0 0 1 265.67014,352.94526 150,150 0 0 1 415.51106,202.83932 150,150 0 0 1 565.66996,352.62718" />
        </g>
        <path
           style="fill:#f5da6e;fill-opacity:1;fill-rule:evenodd;stroke:none;stroke-width:1px;stroke-linecap:butt;stroke-linejoin:miter;stroke-opacity:1"
           d="m 330.11806,228.6025 c 49.40245,-25.03085 114.94856,-19.75619 160.06887,4.6063 35.72686,19.40553 46.20201,45.26376 56.94741,64.84476 15.33284,45.57027 9.83399,44.73952 10.31429,71.05234 -6.60332,40.5004 -19.3646,33.5652 -3.15738,46.8194 l 10.74803,-52.01278 c 1.65257,-17.01762 -1.45027,-26.90213 -2.36751,-40.06505 -6.83281,-20.48805 -9.51024,-35.32128 -22.05158,-52.36646 -10.32023,-14.17561 -17.77386,-24.53214 -36.91431,-40.17145 -14.30624,-12.61547 -37.24,-20.93646 -62.90561,-26.89073 l -47.77146,-2.17143 -38.00002,10.85714 z"
           id="path4189"
           inkscape:connector-curvature="0"
           sodipodi:nodetypes="ccccccccccccc" />
      </g>
      <path
         sodipodi:nodetypes="cc"
         inkscape:connector-curvature="0"
         id="path4191"
         d="m 317.83459,354.50799 c 48.94219,-81.35523 65.66624,1.97231 66.02361,3.83859"
         style="fill:none;fill-rule:evenodd;stroke:#000000;stroke-width:2;stroke-linecap:butt;stroke-linejoin:miter;stroke-miterlimit:4;stroke-dasharray:none;stroke-opacity:1" />
      <path
         style="fill:none;fill-rule:evenodd;stroke:#000000;stroke-width:1.99109793;stroke-linecap:butt;stroke-linejoin:miter;stroke-miterlimit:4;stroke-dasharray:none;stroke-opacity:1"
         d="m 516.49919,356.04612 c -48.49942,-81.36874 -65.07217,1.97264 -65.42631,3.83923"
         id="path4193"
         inkscape:connector-curvature="0"
         sodipodi:nodetypes="cc" />
    </g>
    <g
       id="g4472">
      <path
         style="fill:#ffffff;fill-opacity:1;fill-rule:evenodd;stroke:none;stroke-width:1px;stroke-linecap:butt;stroke-linejoin:miter;stroke-opacity:1"
         d="m 270.49137,388.36022 c 47.05654,12.95685 97.96834,22.77746 148.79402,22.54232 52.74961,3.33756 98.89146,-11.79027 142.12992,-25.57278 -7.33425,60.10408 -20.8837,120.20816 -41.41626,180.31224 l -9.09138,-55.05332 c -2.18776,27.52711 -17.37996,48.55199 -28.28427,71.72082 l -15.65736,-50.00254 c -2.80258,31.59205 -14.20498,61.34127 -35.86042,88.89342 -22.54804,-29.02002 -34.10388,-59.03933 -41.92133,-89.3985 l -27.1731,51.0127 C 350.41061,564.22822 344.4425,538.11564 340.1919,514.62929 l -4.04061,48.48732 C 302.46341,509.40342 279.6731,451.49885 270.49137,388.36022 Z"
         id="path4156"
         inkscape:connector-curvature="0"
         sodipodi:nodetypes="ccccccccccccc" />
      <g
         id="g4182">
        <g
           id="g4176">
          <path
             sodipodi:nodetypes="ccccccccccccc"
             inkscape:connector-curvature="0"
             id="path4154"
             d="M 407.65741,581.75205 C 427.64623,545.85088 442.4181,509.1471 449.1141,471.20088 l 9.98031,30.70866 c 11.90941,-14.80511 19.81177,-29.20952 21.49606,-42.99212 l 10.74803,16.12205 c 14.24034,-26.38191 18.35933,-51.31792 26.10236,-76.77164 l 44.07783,-12.96204 c -14.85196,113.23562 -26.42264,126.13145 -41.39082,179.74842 l -9.2126,-54.31593 c -4.08829,26.34845 -15.55171,49.15683 -28.59744,71.2057 l -15.73818,-49.51771 c -2.70789,45.56634 -19.25757,65.63061 -35.50689,88.09546 -9.9711,-12.05683 -18.53805,-24.67533 -23.41535,-38.76968 z"
             style="fill:#efefef;fill-opacity:1;fill-rule:evenodd;stroke:none;stroke-width:1px;stroke-linecap:butt;stroke-linejoin:miter;stroke-opacity:1" />
          <path
             sodipodi:nodetypes="cccccc"
             inkscape:connector-curvature="0"
             id="path4158"
             d="m 271.38775,401.15447 c 46.55023,8.0453 93.5403,14.40753 152.77556,14.33297 57.7581,-0.68875 91.18539,-4.34579 136.26967,-15.78704 l 0.38386,-14.87092 c -86.78636,35.59847 -190.40277,34.69062 -289.81295,3.96494 z"
             style="fill:#efefef;fill-opacity:1;fill-rule:evenodd;stroke:none;stroke-width:1px;stroke-linecap:butt;stroke-linejoin:miter;stroke-opacity:1" />
          <path
             sodipodi:nodetypes="ccccccccccccc"
             inkscape:connector-curvature="0"
             id="path4140"
             d="m 270.49137,388.36022 c 47.05654,12.95685 97.96834,22.77746 148.79402,22.54232 52.74961,3.33756 98.89146,-11.79027 142.12992,-25.57278 -7.33425,60.10408 -20.8837,120.20816 -41.41626,180.31224 l -9.09138,-55.05332 c -2.18776,27.52711 -17.37996,48.55199 -28.28427,71.72082 l -15.65736,-50.00254 c -2.80258,31.59205 -14.20498,61.34127 -35.86042,88.89342 -22.54804,-29.02002 -34.10388,-59.03933 -41.92133,-89.3985 l -27.1731,51.0127 C 350.41061,564.22822 344.4425,538.11564 340.1919,514.62929 l -4.04061,48.48732 C 302.46341,509.40342 279.6731,451.49885 270.49137,388.36022 Z"
             style="fill:none;fill-opacity:1;fill-rule:evenodd;stroke:#000000;stroke-width:1;stroke-linecap:butt;stroke-linejoin:miter;stroke-miterlimit:4;stroke-dasharray:none;stroke-opacity:1" />
          <path
             sodipodi:nodetypes="cccc"
             inkscape:connector-curvature="0"
             id="path4160"
             d="m 366.15737,440.83325 c 7.66971,4.62767 15.72795,8.63127 29.04287,12.48572 14.96767,4.71914 31.23744,7.02741 56.18575,-1.08571 14.25007,-4.90112 16.54217,-8.23499 23.34287,-12.48572"
             style="fill:none;fill-rule:evenodd;stroke:#000000;stroke-width:3;stroke-linecap:butt;stroke-linejoin:miter;stroke-miterlimit:4;stroke-dasharray:none;stroke-opacity:1" />
        </g>
      </g>
    </g>
    <g
       id="g4490">
      <path
         sodipodi:nodetypes="cccccccccc"
         inkscape:connector-curvature="0"
         id="path4407"
         d="m 439.8361,141.31833 c -37.44344,-15.05356 -56.29844,-11.91571 -78.72126,4.78893 -49.61717,26.85812 -86.0882,44.77676 -116.58359,89.84782 -15.6192,25.42218 -16.09894,50.31178 -23.44424,80.0571 4.13507,-0.45243 8.27015,-0.39619 12.40522,0.70947 l 0.10152,-0.005 c 11.04225,-31.82522 29.50635,-17.114 39.15728,-27.9287 l 16.34467,3.30565 274.38086,-2.12695 C 513.41029,196.60391 508.85899,182.6275 439.8361,141.31833 Z"
         style="fill:#f82325;fill-opacity:1;fill-rule:evenodd;stroke:#000000;stroke-width:1px;stroke-linecap:butt;stroke-linejoin:miter;stroke-opacity:1" />
      <g
         id="g4401">
        <path
           style="fill:#ffffff;fill-opacity:1;fill-rule:evenodd;stroke:#000000;stroke-width:1px;stroke-linecap:butt;stroke-linejoin:miter;stroke-opacity:1"
           d="m 267.96875,306.65908 c 21.91468,0.77936 43.15141,-0.69133 64.89256,-1.15076 38.57468,-0.81516 77.55067,-1.41343 116.25614,-1.76892 37.96362,-0.34868 76.70101,3.88032 114.55443,2.91968 2.35741,-6.51042 3.21955,-13.02083 0.39062,-19.53125 -49.80751,-1.30664 -91.53645,9.06507 -149.20744,-4.21184 -45.85579,-10.55684 -95.29841,0.63941 -146.49568,5.77434 -2.00972,5.98958 -3.50924,11.97917 -0.39063,17.96875 z"
           id="path4217"
           inkscape:connector-curvature="0"
           sodipodi:nodetypes="cssccscc" />
        <path
           style="opacity:0.23800001;fill:none;fill-rule:evenodd;stroke:url(#linearGradient4377);stroke-width:0.5;stroke-linecap:butt;stroke-linejoin:miter;stroke-miterlimit:4;stroke-dasharray:none;stroke-opacity:1"
           d="m 565.23438,298.84658 c -34.41085,1.24576 -67.7317,-0.41513 -100.58594,-3.32032"
           id="path4369"
           inkscape:connector-curvature="0"
           sodipodi:nodetypes="cc" />
        <path
           style="opacity:0.28600003;fill:none;fill-rule:evenodd;stroke:url(#linearGradient4399);stroke-width:0.5;stroke-linecap:butt;stroke-linejoin:miter;stroke-miterlimit:4;stroke-dasharray:none;stroke-opacity:1"
           d="M 266.60156,294.5497 381.25,287.90908 424.60938,291.4247"
           id="path4387"
           inkscape:connector-curvature="0" />
        <path
           style="opacity:0.33800001;fill:none;fill-rule:evenodd;stroke:url(#linearGradient4397);stroke-width:0.5;stroke-linecap:butt;stroke-linejoin:miter;stroke-miterlimit:4;stroke-dasharray:none;stroke-opacity:1"
           d="m 265.23438,302.3622 90.625,-4.6875 15.23437,-2.73437"
           id="path4389"
           inkscape:connector-curvature="0" />
      </g>
    </g>
  </g>
</svg>
